<svg width="323" height="330" viewBox="0 0 323 330" fill="none" xmlns="http://www.w3.org/2000/svg">
<path opacity="0.9" fill-rule="evenodd" clip-rule="evenodd" d="M-0.0162811 330.279V122.644C132.42 126.437 246.735 203.869 238.403 330.279H-0.0162811Z" fill="url(#paint0_linear_202_73997)"/>
<path opacity="0.1" fill-rule="evenodd" clip-rule="evenodd" d="M260.354 159.7C195.829 88.1217 103.002 57.7951 -0.0196533 53.3219V106.907C149.308 114.113 260.354 191.679 260.354 325.292V330.279H323V0H260.354V159.698V159.7Z" fill="url(#paint1_linear_202_73997)"/>
<defs>
<linearGradient id="paint0_linear_202_73997" x1="119.193" y1="122.644" x2="119.193" y2="330.279" gradientUnits="userSpaceOnUse">
<stop stop-color="#17EA2A" stop-opacity="0"/>
<stop offset="1" stop-color="#17EA2A" stop-opacity="0.64"/>
</linearGradient>
<linearGradient id="paint1_linear_202_73997" x1="161.49" y1="0" x2="161.49" y2="330.279" gradientUnits="userSpaceOnUse">
<stop offset="0.00215421" stop-color="white" stop-opacity="0"/>
<stop offset="1" stop-color="white"/>
</linearGradient>
</defs>
</svg>
