<svg width="24" height="24" viewBox="0 0 24 24" fill="none" xmlns="http://www.w3.org/2000/svg">
<path d="M2.89816 10.489C1.43866 7.83829 2.74642 4.82601 5.28693 3.18215C6.32175 2.51256 7.69918 2.76587 8.42807 3.75982L9.9357 5.81568C10.6008 6.72265 10.7028 7.92545 10.1998 8.93141L9.79004 9.75087C9.67143 9.98808 9.65268 10.2625 9.77401 10.4983C9.99506 10.928 10.4658 11.6894 11.3726 12.5962C12.2794 13.503 13.0408 13.9737 13.4705 14.1948C13.7063 14.3161 13.9807 14.2973 14.2179 14.1787L15.0374 13.769C16.0433 13.266 17.2461 13.3679 18.1531 14.0331L20.209 15.5407C21.2029 16.2696 21.4562 17.647 20.7866 18.6818C19.1428 21.2223 16.1305 22.5301 13.4798 21.0706C11.7498 20.1181 9.66944 18.6712 7.48348 16.4853C5.29752 14.2993 3.85069 12.219 2.89816 10.489Z" fill="white"/>
</svg>
