<svg width="201" height="101" viewBox="0 0 201 101" fill="none" xmlns="http://www.w3.org/2000/svg">
<rect width="201" height="101" rx="8" fill="#4A8CFF"/>
<path fill-rule="evenodd" clip-rule="evenodd" d="M131.963 69.791C132.346 70.4579 132.471 71.2167 132.513 72.0697L132.567 73.2066V81.1568L132.623 82.2949C132.734 84.1536 134.091 85.528 135.946 85.6449L137.067 85.701V73.2066L137.123 72.0697C137.169 71.2262 137.293 70.4531 137.682 69.7815C138.078 69.0926 138.646 68.521 139.33 68.1241C140.014 67.7273 140.79 67.5191 141.579 67.5206C142.367 67.522 143.142 67.733 143.825 68.1324C144.507 68.5318 145.074 69.1054 145.467 69.7958C145.85 70.4627 145.969 71.2358 146.016 72.0697L146.071 73.203V81.1568L146.127 82.2949C146.242 84.1632 147.589 85.5375 149.45 85.6449L150.571 85.701V72.0697C150.571 69.6593 149.623 67.3476 147.936 65.6428C146.248 63.9381 143.959 62.9799 141.572 62.979C140.294 62.9776 139.031 63.2516 137.867 63.7826C136.703 64.3135 135.664 65.0893 134.82 66.0581C133.976 65.0897 132.937 64.3141 131.773 63.783C130.609 63.2518 129.346 62.9773 128.068 62.9778C126.199 62.9778 124.465 63.5504 123.028 64.5394C122.151 63.5516 120.19 62.9778 119.064 62.9778V85.701L120.19 85.6449C122.073 85.5196 123.434 84.1823 123.508 82.2949L123.568 81.1568V73.2066L123.623 72.0697C123.671 71.2119 123.789 70.4579 124.173 69.7862C124.569 69.0978 125.138 68.5263 125.821 68.129C126.505 67.7317 127.279 67.5223 128.068 67.5219C128.857 67.5221 129.633 67.7318 130.316 68.1301C131 68.5284 131.568 69.1012 131.963 69.791ZM54.929 85.6461L56.0549 85.701H72.932L72.8765 84.5676C72.724 82.6994 71.4138 81.3346 69.5578 81.2129L68.4318 81.1568H58.3068L71.8061 67.5207L71.7505 66.3886C71.6631 64.5012 70.2973 63.1376 68.4318 63.0338L67.3059 62.9825L50.4288 62.9778L50.4844 64.1147C50.632 65.965 51.9612 67.3585 53.8019 67.4659L54.929 67.5219H65.054L51.5548 81.158L51.6103 82.2949C51.7213 84.168 53.0599 85.5244 54.929 85.6449V85.6461ZM114.647 66.3039C115.692 67.3589 116.521 68.6114 117.086 69.9899C117.652 71.3685 117.943 72.846 117.943 74.3382C117.943 75.8303 117.652 77.3079 117.086 78.6864C116.521 80.0649 115.692 81.3175 114.647 82.3725C112.535 84.5027 109.673 85.6992 106.688 85.6992C103.704 85.6992 100.841 84.5027 98.7302 82.3725C94.3364 77.9357 94.3364 70.7407 98.7302 66.3039C99.7743 65.2492 101.014 64.4126 102.378 63.8417C103.742 63.2708 105.205 62.9768 106.681 62.9766C108.161 62.9755 109.625 63.269 110.992 63.8401C112.359 64.4112 113.601 65.2489 114.647 66.3051V66.3039ZM111.463 69.5214C112.728 70.8003 113.439 72.5343 113.439 74.3423C113.439 76.1503 112.728 77.8844 111.463 79.1633C110.196 80.4412 108.479 81.1591 106.688 81.1591C104.898 81.1591 103.181 80.4412 101.914 79.1633C100.649 77.8844 99.9377 76.1503 99.9377 74.3423C99.9377 72.5343 100.649 70.8003 101.914 69.5214C103.181 68.2434 104.898 67.5256 106.688 67.5256C108.479 67.5256 110.196 68.2434 111.463 69.5214ZM83.0665 62.9766C84.5434 62.977 86.0057 63.2711 87.3699 63.8422C88.7342 64.4133 89.9737 65.2502 91.0177 66.3051C95.4127 70.7407 95.4127 77.9369 91.0177 82.3725C88.9064 84.5027 86.044 85.6992 83.0594 85.6992C80.0748 85.6992 77.2124 84.5027 75.1011 82.3725C70.7073 77.9357 70.7073 70.7407 75.1011 66.3039C76.1452 65.2492 77.3847 64.4126 78.749 63.8417C80.1133 63.2708 81.5755 62.9768 83.0523 62.9766H83.0665ZM87.8337 69.519C89.0996 70.798 89.8108 72.5323 89.8108 74.3406C89.8108 76.1488 89.0996 77.8831 87.8337 79.1621C86.5671 80.4401 84.8499 81.1579 83.0594 81.1579C81.2689 81.1579 79.5517 80.4401 78.2851 79.1621C77.0196 77.8832 76.3086 76.1491 76.3086 74.3412C76.3086 72.5332 77.0196 70.7991 78.2851 69.5202C79.5517 68.2422 81.2689 67.5244 83.0594 67.5244C84.8499 67.5244 86.5671 68.2411 87.8337 69.519Z" fill="white"/>
<g clip-path="url(#clip0_434_78751)">
<path d="M101 48C110.941 48 119 39.9411 119 30C119 20.0589 110.941 12 101 12C91.0589 12 83 20.0589 83 30C83 39.9411 91.0589 48 101 48Z" fill="white"/>
<path d="M89.4509 24.3626V32.8215C89.4554 33.739 89.8239 34.6172 90.4755 35.2631C91.1271 35.909 92.0085 36.2697 92.9259 36.2661H105.256C105.423 36.2669 105.583 36.2015 105.702 36.0844C105.82 35.9673 105.887 35.8079 105.889 35.6412V27.1822C105.884 26.2648 105.516 25.3866 104.864 24.7407C104.213 24.0948 103.331 23.7341 102.414 23.7377H90.0873C90.0044 23.7368 89.9222 23.7523 89.8453 23.7832C89.7684 23.8141 89.6984 23.86 89.6393 23.918C89.5802 23.9761 89.5331 24.0452 89.5008 24.1215C89.4685 24.1978 89.4515 24.2797 89.4509 24.3626ZM106.674 27.6623L111.764 23.9435C112.206 23.5769 112.549 23.6691 112.549 24.3321V35.6717C112.549 36.4261 112.13 36.3347 111.764 36.0595L106.674 32.349V27.6623Z" fill="#4A8CFF"/>
</g>
<defs>
<clipPath id="clip0_434_78751">
<rect width="36" height="36" fill="white" transform="translate(83 12)"/>
</clipPath>
</defs>
</svg>
